{
  "uid" : "83edc06c07f9ae9e47eb6dd1b683e4e2",
  "name" : "packages",
  "children" : [ {
    "name" : "com.aspire.odoo.tests.TestAspireApp",
    "children" : [ {
      "name" : "loginToWebApplication",
      "uid" : "8bec2f198054ffbb",
      "parentUid" : "9221629fbd03f0086b8520dc0bda0c9c",
      "status" : "passed",
      "time" : {
        "start" : 1650269407113,
        "stop" : 1650269409841,
        "duration" : 2728
      },
      "flaky" : false,
      "newFailed" : false,
      "newPassed" : false,
      "newBroken" : false,
      "retriesCount" : 1,
      "retriesStatusChange" : false,
      "parameters" : [ ]
    }, {
      "name" : "navigateToInventoryFeature",
      "uid" : "74cdab85ec28d118",
      "parentUid" : "9221629fbd03f0086b8520dc0bda0c9c",
      "status" : "passed",
      "time" : {
        "start" : 1650269409986,
        "stop" : 1650269410773,
        "duration" : 787
      },
      "flaky" : false,
      "newFailed" : false,
      "newPassed" : false,
      "newBroken" : false,
      "retriesCount" : 1,
      "retriesStatusChange" : false,
      "parameters" : [ ]
    }, {
      "name" : "createANewProduct",
      "uid" : "d0f08c5f247a043f",
      "parentUid" : "9221629fbd03f0086b8520dc0bda0c9c",
      "status" : "passed",
      "time" : {
        "start" : 1650269410778,
        "stop" : 1650269411512,
        "duration" : 734
      },
      "flaky" : false,
      "newFailed" : false,
      "newPassed" : false,
      "newBroken" : false,
      "retriesCount" : 1,
      "retriesStatusChange" : false,
      "parameters" : [ ]
    }, {
      "name" : "UpdateProductQuantity",
      "uid" : "1e75b8253e7d93db",
      "parentUid" : "9221629fbd03f0086b8520dc0bda0c9c",
      "status" : "passed",
      "time" : {
        "start" : 1650269411517,
        "stop" : 1650269419878,
        "duration" : 8361
      },
      "flaky" : false,
      "newFailed" : false,
      "newPassed" : false,
      "newBroken" : false,
      "retriesCount" : 1,
      "retriesStatusChange" : false,
      "parameters" : [ "Manufacturing Order", "16" ]
    }, {
      "name" : "clickOnApplicationIcon",
      "uid" : "4b7bf2444fcfc2e8",
      "parentUid" : "9221629fbd03f0086b8520dc0bda0c9c",
      "status" : "passed",
      "time" : {
        "start" : 1650269419884,
        "stop" : 1650269419930,
        "duration" : 46
      },
      "flaky" : false,
      "newFailed" : false,
      "newPassed" : false,
      "newBroken" : false,
      "retriesCount" : 1,
      "retriesStatusChange" : false,
      "parameters" : [ ]
    }, {
      "name" : "createANewManufacturingOrder",
      "uid" : "a285efcd74746930",
      "parentUid" : "9221629fbd03f0086b8520dc0bda0c9c",
      "status" : "passed",
      "time" : {
        "start" : 1650269419933,
        "stop" : 1650269425520,
        "duration" : 5587
      },
      "flaky" : false,
      "newFailed" : false,
      "newPassed" : false,
      "newBroken" : false,
      "retriesCount" : 1,
      "retriesStatusChange" : false,
      "parameters" : [ "Manufacturing Order", "16" ]
    }, {
      "name" : "updateOrderStatusToDone",
      "uid" : "9d0e5988504767cc",
      "parentUid" : "9221629fbd03f0086b8520dc0bda0c9c",
      "status" : "passed",
      "time" : {
        "start" : 1650269425525,
        "stop" : 1650269430433,
        "duration" : 4908
      },
      "flaky" : false,
      "newFailed" : false,
      "newPassed" : false,
      "newBroken" : false,
      "retriesCount" : 1,
      "retriesStatusChange" : false,
      "parameters" : [ ]
    }, {
      "name" : "ValidateCreatedManufacturingOrder",
      "uid" : "d09b45b8e2e3308d",
      "parentUid" : "9221629fbd03f0086b8520dc0bda0c9c",
      "status" : "passed",
      "time" : {
        "start" : 1650269430435,
        "stop" : 1650269430547,
        "duration" : 112
      },
      "flaky" : false,
      "newFailed" : false,
      "newPassed" : false,
      "newBroken" : false,
      "retriesCount" : 1,
      "retriesStatusChange" : false,
      "parameters" : [ "Manufacturing Order", "16" ]
    } ],
    "uid" : "com.aspire.odoo.tests.TestAspireApp"
  } ]
}